G04*
G04 #@! TF.GenerationSoftware,Altium Limited,Altium Designer,22.3.1 (43)*
G04*
G04 Layer_Physical_Order=2*
G04 Layer_Color=16711680*
%FSLAX25Y25*%
%MOIN*%
G70*
G04*
G04 #@! TF.SameCoordinates,74F19525-EB22-4695-B894-CBC4EE51127D*
G04*
G04*
G04 #@! TF.FilePolarity,Positive*
G04*
G01*
G75*
%ADD19C,0.01968*%
%ADD20C,0.03937*%
%ADD21C,0.07874*%
%ADD22C,0.06693*%
%ADD23R,0.06693X0.06693*%
%ADD24C,0.11811*%
%ADD25C,0.06496*%
%ADD26R,0.07087X0.07087*%
%ADD27C,0.07087*%
%ADD28R,0.07874X0.07874*%
%ADD29C,0.07874*%
%ADD30R,0.05709X0.05709*%
%ADD31C,0.05709*%
%ADD32C,0.05906*%
%ADD33R,0.05906X0.05906*%
%ADD34R,0.10236X0.10236*%
%ADD35P,0.11080X8X22.5*%
%ADD36R,0.08268X0.08268*%
%ADD37P,0.08949X8X22.5*%
%ADD38C,0.07000*%
%ADD39R,0.06496X0.06496*%
%ADD40P,0.07031X8X292.5*%
%ADD41C,0.05000*%
G36*
X462598Y497563D02*
X462098Y497356D01*
X461724Y497730D01*
X460733Y498302D01*
X459646Y498594D01*
Y494252D01*
Y489910D01*
X460293Y490084D01*
X461836D01*
X462246Y489673D01*
X462039Y489173D01*
X432087D01*
X424213Y481299D01*
X398622Y481299D01*
X346457Y429134D01*
X346457Y376969D01*
X339567Y370079D01*
Y362838D01*
X339130Y362184D01*
X338507Y360679D01*
X338189Y359082D01*
Y357453D01*
X338507Y355856D01*
X339130Y354351D01*
X339567Y353697D01*
Y335630D01*
Y325787D01*
X353346Y312008D01*
Y303783D01*
X352909Y303129D01*
X352286Y301624D01*
X351969Y300027D01*
Y298831D01*
X351823Y298686D01*
X351036Y297727D01*
X350451Y296633D01*
X350091Y295445D01*
X349970Y294210D01*
Y285102D01*
X339474Y274606D01*
X318898D01*
Y500000D01*
X462598D01*
Y497563D01*
D02*
G37*
G36*
X470472Y481299D02*
Y475345D01*
X469972Y475280D01*
X469798Y475930D01*
X469226Y476921D01*
X468417Y477730D01*
X467426Y478302D01*
X466338Y478593D01*
Y474252D01*
Y469910D01*
X467426Y470202D01*
X468417Y470774D01*
X469226Y471583D01*
X469798Y472574D01*
X469972Y473224D01*
X470472Y473159D01*
Y470472D01*
X468504Y468504D01*
X462598D01*
X460630Y470472D01*
X460630Y476378D01*
X455709Y481299D01*
X448819Y481299D01*
X444882Y477362D01*
Y421260D01*
X405512Y381890D01*
Y349409D01*
X430118Y324803D01*
Y272638D01*
X400106D01*
X399808Y273039D01*
X399909Y273371D01*
X400031Y274606D01*
Y294210D01*
X399909Y295445D01*
X399549Y296633D01*
X398964Y297727D01*
X398177Y298686D01*
X398177Y298686D01*
X398031Y298831D01*
Y300027D01*
X397714Y301624D01*
X397091Y303129D01*
X396654Y303783D01*
Y331693D01*
X376969Y351378D01*
Y376969D01*
X426181Y426181D01*
Y479862D01*
X433084Y486765D01*
X462039D01*
X462039Y486765D01*
X462961Y486948D01*
X463345Y487205D01*
X464567D01*
X470472Y481299D01*
D02*
G37*
G36*
X423773Y473624D02*
X423273Y473490D01*
X422927Y474089D01*
X422081Y474935D01*
X421045Y475533D01*
X419889Y475843D01*
X419882D01*
Y471299D01*
Y466756D01*
X419889D01*
X421045Y467065D01*
X422081Y467664D01*
X422927Y468510D01*
X423273Y469108D01*
X423773Y468974D01*
Y453824D01*
X423273Y453690D01*
X422769Y454561D01*
X421923Y455407D01*
X420888Y456005D01*
X419732Y456315D01*
X419724D01*
Y451772D01*
Y447228D01*
X419732D01*
X420888Y447538D01*
X421923Y448136D01*
X422769Y448982D01*
X423273Y449854D01*
X423773Y449720D01*
Y427179D01*
X375266Y378672D01*
X374743Y377890D01*
X374560Y376969D01*
Y376529D01*
X374016Y375984D01*
Y349409D01*
X385827Y337598D01*
X394245Y329180D01*
Y310584D01*
X391048Y307387D01*
X390578Y307480D01*
X388949D01*
X387352Y307163D01*
X385848Y306539D01*
X384493Y305634D01*
X383342Y304483D01*
X382437Y303129D01*
X381814Y301624D01*
X381496Y300027D01*
Y298398D01*
X381814Y296801D01*
X382437Y295296D01*
X383342Y293942D01*
X384493Y292791D01*
X385827Y291900D01*
Y276575D01*
X368713Y259461D01*
Y242508D01*
Y241142D01*
X345472D01*
Y261811D01*
X364173Y280512D01*
Y291900D01*
X365507Y292791D01*
X366658Y293942D01*
X367563Y295296D01*
X368186Y296801D01*
X368504Y298398D01*
Y300027D01*
X368186Y301624D01*
X367563Y303129D01*
X366658Y304483D01*
X365507Y305634D01*
X364152Y306539D01*
X362648Y307163D01*
X361051Y307480D01*
X359422D01*
X358952Y307387D01*
X355755Y310584D01*
Y312008D01*
X355572Y312930D01*
X355049Y313711D01*
X341975Y326785D01*
Y335630D01*
Y352356D01*
X342475Y352623D01*
X343186Y352148D01*
X344442Y351628D01*
X345777Y351362D01*
X345866D01*
Y358268D01*
Y365173D01*
X345777D01*
X344442Y364908D01*
X343186Y364387D01*
X342475Y363913D01*
X341975Y364180D01*
Y369081D01*
X348160Y375266D01*
X348682Y376047D01*
X348865Y376969D01*
X348865Y428136D01*
X399620Y478891D01*
X423773Y478891D01*
Y473624D01*
D02*
G37*
G36*
X484815Y480943D02*
X484668Y469495D01*
X496063Y458101D01*
Y428270D01*
X495563Y428063D01*
X495030Y428596D01*
X494061Y429155D01*
X493012Y429436D01*
Y425197D01*
Y420957D01*
X494061Y421238D01*
X495030Y421798D01*
X495563Y422331D01*
X496063Y422124D01*
Y414330D01*
X495906Y414288D01*
X495563Y414248D01*
X494758Y415053D01*
X493722Y415651D01*
X492567Y415961D01*
X492559D01*
Y411417D01*
Y406874D01*
X492567D01*
X493722Y407184D01*
X494758Y407782D01*
X495563Y408587D01*
X495906Y408547D01*
X496063Y408505D01*
Y403543D01*
X472441Y379921D01*
X472441Y305118D01*
X473412Y304147D01*
Y304134D01*
X473425D01*
X493110Y284449D01*
Y255906D01*
X485236Y248031D01*
X437992D01*
X433071Y243110D01*
X420276D01*
X417323Y246063D01*
Y254921D01*
X425197Y262795D01*
X444428D01*
X448100Y259124D01*
X448881Y258602D01*
X449803Y258418D01*
X456550D01*
X456781Y258464D01*
X457017Y258464D01*
X457238Y258555D01*
X457472Y258602D01*
X457668Y258733D01*
X457886Y258823D01*
X458055Y258991D01*
X458253Y259124D01*
X458344Y259261D01*
X458397Y259289D01*
X458661Y259345D01*
X458925Y259289D01*
X458979Y259261D01*
X459070Y259124D01*
X459268Y258991D01*
X459437Y258823D01*
X459655Y258733D01*
X459851Y258602D01*
X460085Y258555D01*
X460306Y258464D01*
X460541Y258464D01*
X460773Y258418D01*
X471457D01*
X472378Y258602D01*
X473160Y259124D01*
X473682Y259905D01*
X473865Y260827D01*
Y267172D01*
X474409Y267717D01*
Y280512D01*
X453196Y301725D01*
Y332677D01*
X453013Y333599D01*
X452490Y334380D01*
X445322Y341549D01*
X445322Y378924D01*
X457814Y391415D01*
X459202Y391043D01*
X460679D01*
X462106Y391426D01*
X463386Y392164D01*
X464430Y393209D01*
X465169Y394488D01*
X465551Y395915D01*
Y397392D01*
X465169Y398819D01*
X464430Y400098D01*
X463931Y400597D01*
X464002Y400806D01*
X463992Y400965D01*
X464023Y401121D01*
Y418972D01*
X464523Y419124D01*
X464935Y418507D01*
X465751Y417691D01*
X466711Y417049D01*
X467193Y416850D01*
X467229Y416293D01*
X466725Y416003D01*
X465887Y415165D01*
X465295Y414139D01*
X464988Y412994D01*
Y412992D01*
X469488D01*
X473988D01*
Y412994D01*
X473681Y414139D01*
X473089Y415165D01*
X472251Y416003D01*
X471747Y416293D01*
X471784Y416850D01*
X472265Y417049D01*
X473225Y417691D01*
X474042Y418507D01*
X474683Y419467D01*
X475125Y420534D01*
X475350Y421667D01*
Y422822D01*
X475125Y423954D01*
X474683Y425021D01*
X474042Y425981D01*
X473225Y426797D01*
X472265Y427439D01*
X471198Y427881D01*
X470066Y428106D01*
X469803D01*
X468935Y428975D01*
Y432851D01*
X469647Y433563D01*
X470385Y434842D01*
X470768Y436269D01*
Y437746D01*
X470385Y439173D01*
X469647Y440453D01*
X468602Y441497D01*
X467323Y442236D01*
X465896Y442618D01*
X464419D01*
X464023Y442922D01*
Y445857D01*
X464419Y446161D01*
X465896D01*
X467323Y446544D01*
X468602Y447282D01*
X469647Y448327D01*
X470385Y449606D01*
X470768Y451033D01*
Y452510D01*
X470385Y453937D01*
X469647Y455216D01*
X468602Y456261D01*
X467323Y456999D01*
X465896Y457382D01*
X464419D01*
X464023Y457686D01*
Y461070D01*
X469183Y466231D01*
X469426Y466279D01*
X470207Y466801D01*
X472176Y468769D01*
X472698Y469551D01*
X472881Y470472D01*
Y473159D01*
X472820Y473467D01*
X472799Y473782D01*
X472729Y473924D01*
X472698Y474080D01*
X472583Y474252D01*
X472698Y474424D01*
X472729Y474580D01*
X472799Y474722D01*
X472820Y475036D01*
X472881Y475345D01*
Y481299D01*
X484464D01*
X484815Y480943D01*
D02*
G37*
G36*
X450949Y478891D02*
X451015Y478391D01*
X450684Y478302D01*
X449693Y477730D01*
X448884Y476921D01*
X448312Y475930D01*
X448021Y474843D01*
X452362D01*
X456704D01*
X456412Y475930D01*
X455840Y476921D01*
X455031Y477730D01*
X454040Y478302D01*
X453710Y478391D01*
X453775Y478891D01*
X454711D01*
X458221Y475380D01*
X458221Y470472D01*
X458405Y469551D01*
X458927Y468769D01*
X460895Y466801D01*
X461614Y466321D01*
Y454131D01*
X461199Y453411D01*
X460909Y452331D01*
Y451212D01*
X461199Y450132D01*
X461614Y449413D01*
Y441399D01*
X460668Y440453D01*
X459930Y439173D01*
X459547Y437746D01*
Y436269D01*
X459930Y434842D01*
X460199Y434376D01*
Y427165D01*
X460348Y426035D01*
X460784Y424981D01*
X461478Y424077D01*
X461614Y423941D01*
Y401121D01*
X461114Y400737D01*
X460532Y400893D01*
Y396654D01*
X459941D01*
Y396063D01*
X455701D01*
X455982Y395014D01*
X456542Y394045D01*
X456789Y393797D01*
X442913Y379921D01*
X442913Y340551D01*
X450787Y332677D01*
Y299213D01*
X471457Y278543D01*
Y260827D01*
X460773D01*
X460673Y261327D01*
X461693Y261915D01*
X462612Y262835D01*
X463262Y263961D01*
X463598Y265216D01*
Y265276D01*
X458661D01*
X453724D01*
Y265216D01*
X454061Y263961D01*
X454711Y262835D01*
X455630Y261915D01*
X456650Y261327D01*
X456550Y260827D01*
X449803D01*
X432527Y278103D01*
Y324803D01*
X432343Y325725D01*
X431821Y326506D01*
X407920Y350407D01*
Y380892D01*
X446585Y419557D01*
X447107Y420338D01*
X447290Y421260D01*
Y476365D01*
X449817Y478891D01*
X450949D01*
D02*
G37*
G36*
X415354Y256227D02*
X415098Y255843D01*
X414914Y254921D01*
Y246063D01*
X415098Y245141D01*
X415620Y244360D01*
X418573Y241407D01*
X419354Y240885D01*
X420276Y240702D01*
X421700D01*
X422244Y240158D01*
X434055D01*
X439521Y245623D01*
X483268D01*
Y228346D01*
X395669D01*
Y258858D01*
X415354D01*
Y256227D01*
D02*
G37*
%LPC*%
G36*
X446260Y498594D02*
Y494842D01*
X450011D01*
X449719Y495930D01*
X449147Y496921D01*
X448338Y497730D01*
X447347Y498302D01*
X446260Y498594D01*
D02*
G37*
G36*
X445079D02*
X443992Y498302D01*
X443001Y497730D01*
X442191Y496921D01*
X441619Y495930D01*
X441328Y494842D01*
X445079D01*
Y498594D01*
D02*
G37*
G36*
X458465D02*
X457377Y498302D01*
X456386Y497730D01*
X455577Y496921D01*
X455005Y495930D01*
X454714Y494842D01*
X458465D01*
Y498594D01*
D02*
G37*
G36*
X419889Y495843D02*
X419882D01*
Y491890D01*
X423835D01*
Y491897D01*
X423525Y493053D01*
X422927Y494089D01*
X422081Y494935D01*
X421045Y495533D01*
X419889Y495843D01*
D02*
G37*
G36*
X418701D02*
X418693D01*
X417538Y495533D01*
X416502Y494935D01*
X415656Y494089D01*
X415058Y493053D01*
X414748Y491897D01*
Y491890D01*
X418701D01*
Y495843D01*
D02*
G37*
G36*
X445079Y493661D02*
X441328D01*
X441619Y492574D01*
X442191Y491583D01*
X443001Y490774D01*
X443992Y490202D01*
X445079Y489910D01*
Y493661D01*
D02*
G37*
G36*
X458465Y493661D02*
X454714D01*
X455005Y492574D01*
X455577Y491583D01*
X456386Y490774D01*
X457377Y490202D01*
X458465Y489910D01*
Y493661D01*
D02*
G37*
G36*
X450011Y493661D02*
X446260D01*
Y489910D01*
X447347Y490202D01*
X448338Y490774D01*
X449147Y491583D01*
X449719Y492574D01*
X450011Y493661D01*
D02*
G37*
G36*
X423835Y490709D02*
X419882D01*
Y486756D01*
X419889D01*
X421045Y487066D01*
X422081Y487664D01*
X422927Y488510D01*
X423525Y489546D01*
X423835Y490701D01*
Y490709D01*
D02*
G37*
G36*
X418701D02*
X414748D01*
Y490701D01*
X415058Y489546D01*
X415656Y488510D01*
X416502Y487664D01*
X417538Y487066D01*
X418693Y486756D01*
X418701D01*
Y490709D01*
D02*
G37*
G36*
X347137Y455724D02*
X347047D01*
Y449409D01*
X353362D01*
Y449499D01*
X353097Y450833D01*
X352576Y452090D01*
X351821Y453221D01*
X350859Y454183D01*
X349728Y454939D01*
X348471Y455459D01*
X347137Y455724D01*
D02*
G37*
G36*
X345866D02*
X345777D01*
X344442Y455459D01*
X343186Y454939D01*
X342055Y454183D01*
X341093Y453221D01*
X340337Y452090D01*
X339817Y450833D01*
X339551Y449499D01*
Y449409D01*
X345866D01*
Y455724D01*
D02*
G37*
G36*
X353362Y448228D02*
X347047D01*
Y441913D01*
X347137D01*
X348471Y442179D01*
X349728Y442699D01*
X350859Y443455D01*
X351821Y444417D01*
X352576Y445548D01*
X353097Y446805D01*
X353362Y448139D01*
Y448228D01*
D02*
G37*
G36*
X345866D02*
X339551D01*
Y448139D01*
X339817Y446805D01*
X340337Y445548D01*
X341093Y444417D01*
X342055Y443455D01*
X343186Y442699D01*
X344442Y442179D01*
X345777Y441913D01*
X345866D01*
Y448228D01*
D02*
G37*
G36*
X331389Y306118D02*
X331299D01*
Y299803D01*
X337614D01*
Y299893D01*
X337349Y301227D01*
X336828Y302484D01*
X336072Y303615D01*
X335111Y304576D01*
X333980Y305332D01*
X332723Y305853D01*
X331389Y306118D01*
D02*
G37*
G36*
X330118D02*
X330029D01*
X328694Y305853D01*
X327438Y305332D01*
X326307Y304576D01*
X325345Y303615D01*
X324589Y302484D01*
X324068Y301227D01*
X323803Y299893D01*
Y299803D01*
X330118D01*
Y306118D01*
D02*
G37*
G36*
X337614Y298622D02*
X331299D01*
Y292307D01*
X331389D01*
X332723Y292572D01*
X333980Y293093D01*
X335111Y293849D01*
X336072Y294811D01*
X336828Y295942D01*
X337349Y297198D01*
X337614Y298533D01*
Y298622D01*
D02*
G37*
G36*
X330118D02*
X323803D01*
Y298533D01*
X324068Y297198D01*
X324589Y295942D01*
X325345Y294811D01*
X326307Y293849D01*
X327438Y293093D01*
X328694Y292572D01*
X330029Y292307D01*
X330118D01*
Y298622D01*
D02*
G37*
G36*
X465157Y478593D02*
X464070Y478302D01*
X463079Y477730D01*
X462270Y476921D01*
X461698Y475930D01*
X461407Y474843D01*
X465157D01*
Y478593D01*
D02*
G37*
G36*
X443323Y478598D02*
X439567D01*
Y474843D01*
X443323D01*
Y478598D01*
D02*
G37*
G36*
X438386D02*
X434630D01*
Y474843D01*
X438386D01*
Y478598D01*
D02*
G37*
G36*
X465157Y473661D02*
X461407D01*
X461698Y472574D01*
X462270Y471583D01*
X463079Y470774D01*
X464070Y470202D01*
X465157Y469910D01*
Y473661D01*
D02*
G37*
G36*
X443323Y473661D02*
X439567D01*
Y469906D01*
X443323D01*
Y473661D01*
D02*
G37*
G36*
X438386D02*
X434630D01*
Y469906D01*
X438386D01*
Y473661D01*
D02*
G37*
G36*
X439732Y456315D02*
X439724D01*
Y452362D01*
X443677D01*
Y452370D01*
X443367Y453525D01*
X442769Y454561D01*
X441924Y455407D01*
X440887Y456005D01*
X439732Y456315D01*
D02*
G37*
G36*
X438543D02*
X438536D01*
X437380Y456005D01*
X436344Y455407D01*
X435498Y454561D01*
X434900Y453525D01*
X434591Y452370D01*
Y452362D01*
X438543D01*
Y456315D01*
D02*
G37*
G36*
X443677Y451181D02*
X439724D01*
Y447228D01*
X439732D01*
X440887Y447538D01*
X441924Y448136D01*
X442769Y448982D01*
X443367Y450018D01*
X443677Y451173D01*
Y451181D01*
D02*
G37*
G36*
X438543D02*
X434591D01*
Y451173D01*
X434900Y450018D01*
X435498Y448982D01*
X436344Y448136D01*
X437380Y447538D01*
X438536Y447228D01*
X438543D01*
Y451181D01*
D02*
G37*
G36*
X386507Y365173D02*
X386417D01*
Y358858D01*
X392732D01*
Y358948D01*
X392467Y360282D01*
X391946Y361539D01*
X391191Y362670D01*
X390229Y363632D01*
X389098Y364387D01*
X387841Y364908D01*
X386507Y365173D01*
D02*
G37*
G36*
X385236D02*
X385147D01*
X383812Y364908D01*
X382556Y364387D01*
X381425Y363632D01*
X380463Y362670D01*
X379707Y361539D01*
X379187Y360282D01*
X378921Y358948D01*
Y358858D01*
X385236D01*
Y365173D01*
D02*
G37*
G36*
X392732Y357677D02*
X386417D01*
Y351362D01*
X386507D01*
X387841Y351628D01*
X389098Y352148D01*
X390229Y352904D01*
X391191Y353866D01*
X391946Y354997D01*
X392467Y356254D01*
X392732Y357588D01*
Y357677D01*
D02*
G37*
G36*
X385236D02*
X378921D01*
Y357588D01*
X379187Y356254D01*
X379707Y354997D01*
X380463Y353866D01*
X381425Y352904D01*
X382556Y352148D01*
X383812Y351628D01*
X385147Y351362D01*
X385236D01*
Y357677D01*
D02*
G37*
G36*
X419972Y306118D02*
X419882D01*
Y299803D01*
X426197D01*
Y299893D01*
X425932Y301227D01*
X425411Y302484D01*
X424655Y303615D01*
X423693Y304576D01*
X422562Y305332D01*
X421306Y305853D01*
X419972Y306118D01*
D02*
G37*
G36*
X418701D02*
X418611D01*
X417277Y305853D01*
X416020Y305332D01*
X414889Y304576D01*
X413928Y303615D01*
X413172Y302484D01*
X412651Y301227D01*
X412386Y299893D01*
Y299803D01*
X418701D01*
Y306118D01*
D02*
G37*
G36*
X426197Y298622D02*
X419882D01*
Y292307D01*
X419972D01*
X421306Y292572D01*
X422562Y293093D01*
X423693Y293849D01*
X424655Y294811D01*
X425411Y295942D01*
X425932Y297198D01*
X426197Y298533D01*
Y298622D01*
D02*
G37*
G36*
X418701D02*
X412386D01*
Y298533D01*
X412651Y297198D01*
X413172Y295942D01*
X413928Y294811D01*
X414889Y293849D01*
X416020Y293093D01*
X417277Y292572D01*
X418611Y292307D01*
X418701D01*
Y298622D01*
D02*
G37*
G36*
X422835Y282009D02*
Y279134D01*
X425709D01*
X425506Y279894D01*
X425045Y280692D01*
X424393Y281344D01*
X423595Y281805D01*
X422835Y282009D01*
D02*
G37*
G36*
X421654D02*
X420893Y281805D01*
X420095Y281344D01*
X419443Y280692D01*
X418983Y279894D01*
X418779Y279134D01*
X421654D01*
Y282009D01*
D02*
G37*
G36*
X425709Y277953D02*
X422835D01*
Y275078D01*
X423595Y275282D01*
X424393Y275743D01*
X425045Y276394D01*
X425506Y277192D01*
X425709Y277953D01*
D02*
G37*
G36*
X421654D02*
X418779D01*
X418983Y277192D01*
X419443Y276394D01*
X420095Y275743D01*
X420893Y275282D01*
X421654Y275078D01*
Y277953D01*
D02*
G37*
G36*
X418701Y475843D02*
X418693D01*
X417538Y475533D01*
X416502Y474935D01*
X415656Y474089D01*
X415058Y473053D01*
X414748Y471897D01*
Y471890D01*
X418701D01*
Y475843D01*
D02*
G37*
G36*
Y470709D02*
X414748D01*
Y470701D01*
X415058Y469546D01*
X415656Y468510D01*
X416502Y467664D01*
X417538Y467065D01*
X418693Y466756D01*
X418701D01*
Y470709D01*
D02*
G37*
G36*
X419882Y465079D02*
Y462205D01*
X422757D01*
X422553Y462965D01*
X422092Y463763D01*
X421440Y464415D01*
X420642Y464876D01*
X419882Y465079D01*
D02*
G37*
G36*
X418701D02*
X417940Y464876D01*
X417142Y464415D01*
X416491Y463763D01*
X416030Y462965D01*
X415826Y462205D01*
X418701D01*
Y465079D01*
D02*
G37*
G36*
X422757Y461024D02*
X419882D01*
Y458149D01*
X420642Y458353D01*
X421440Y458813D01*
X422092Y459465D01*
X422553Y460263D01*
X422757Y461024D01*
D02*
G37*
G36*
X418701D02*
X415826D01*
X416030Y460263D01*
X416491Y459465D01*
X417142Y458813D01*
X417940Y458353D01*
X418701Y458149D01*
Y461024D01*
D02*
G37*
G36*
X418543Y456315D02*
X418536D01*
X417380Y456005D01*
X416344Y455407D01*
X415498Y454561D01*
X414900Y453525D01*
X414591Y452370D01*
Y452362D01*
X418543D01*
Y456315D01*
D02*
G37*
G36*
X386507Y455724D02*
X386417D01*
Y449409D01*
X392732D01*
Y449499D01*
X392467Y450833D01*
X391946Y452090D01*
X391191Y453221D01*
X390229Y454183D01*
X389098Y454939D01*
X387841Y455459D01*
X386507Y455724D01*
D02*
G37*
G36*
X385236D02*
X385147D01*
X383812Y455459D01*
X382556Y454939D01*
X381425Y454183D01*
X380463Y453221D01*
X379707Y452090D01*
X379187Y450833D01*
X378921Y449499D01*
Y449409D01*
X385236D01*
Y455724D01*
D02*
G37*
G36*
X418543Y451181D02*
X414591D01*
Y451173D01*
X414900Y450018D01*
X415498Y448982D01*
X416344Y448136D01*
X417380Y447538D01*
X418536Y447228D01*
X418543D01*
Y451181D01*
D02*
G37*
G36*
X392732Y448228D02*
X386417D01*
Y441913D01*
X386507D01*
X387841Y442179D01*
X389098Y442699D01*
X390229Y443455D01*
X391191Y444417D01*
X391946Y445548D01*
X392467Y446805D01*
X392732Y448139D01*
Y448228D01*
D02*
G37*
G36*
X385236D02*
X378921D01*
Y448139D01*
X379187Y446805D01*
X379707Y445548D01*
X380463Y444417D01*
X381425Y443455D01*
X382556Y442699D01*
X383812Y442179D01*
X385147Y441913D01*
X385236D01*
Y448228D01*
D02*
G37*
G36*
X347137Y365173D02*
X347047D01*
Y358858D01*
X353362D01*
Y358948D01*
X353097Y360282D01*
X352576Y361539D01*
X351821Y362670D01*
X350859Y363632D01*
X349728Y364387D01*
X348471Y364908D01*
X347137Y365173D01*
D02*
G37*
G36*
X353362Y357677D02*
X347047D01*
Y351362D01*
X347137D01*
X348471Y351628D01*
X349728Y352148D01*
X350859Y352904D01*
X351821Y353866D01*
X352576Y354997D01*
X353097Y356254D01*
X353362Y357588D01*
Y357677D01*
D02*
G37*
G36*
X360343Y257102D02*
X357874D01*
Y251575D01*
X363402D01*
Y254043D01*
X360343Y257102D01*
D02*
G37*
G36*
X356693D02*
X354224D01*
X351165Y254043D01*
Y251575D01*
X356693D01*
Y257102D01*
D02*
G37*
G36*
X363402Y250394D02*
X357874D01*
Y244866D01*
X360343D01*
X363402Y247925D01*
Y250394D01*
D02*
G37*
G36*
X356693D02*
X351165D01*
Y247925D01*
X354224Y244866D01*
X356693D01*
Y250394D01*
D02*
G37*
G36*
X479724Y478593D02*
Y474843D01*
X483475D01*
X483184Y475930D01*
X482612Y476921D01*
X481803Y477730D01*
X480812Y478302D01*
X479724Y478593D01*
D02*
G37*
G36*
X478543Y478593D02*
X477456Y478302D01*
X476465Y477730D01*
X475656Y476921D01*
X475084Y475930D01*
X474792Y474843D01*
X478543D01*
Y478593D01*
D02*
G37*
G36*
Y473661D02*
X474792D01*
X475084Y472574D01*
X475656Y471583D01*
X476465Y470774D01*
X477456Y470202D01*
X478543Y469910D01*
Y473661D01*
D02*
G37*
G36*
X483475D02*
X479724D01*
Y469910D01*
X480812Y470202D01*
X481803Y470774D01*
X482612Y471583D01*
X483184Y472574D01*
X483475Y473661D01*
D02*
G37*
G36*
X479921Y465079D02*
Y462205D01*
X482796D01*
X482592Y462965D01*
X482131Y463763D01*
X481480Y464415D01*
X480682Y464876D01*
X479921Y465079D01*
D02*
G37*
G36*
X478740D02*
X477980Y464876D01*
X477182Y464415D01*
X476530Y463763D01*
X476069Y462965D01*
X475866Y462205D01*
X478740D01*
Y465079D01*
D02*
G37*
G36*
X482796Y461024D02*
X479921D01*
Y458149D01*
X480682Y458353D01*
X481480Y458813D01*
X482131Y459465D01*
X482592Y460263D01*
X482796Y461024D01*
D02*
G37*
G36*
X478740D02*
X475866D01*
X476069Y460263D01*
X476530Y459465D01*
X477182Y458813D01*
X477980Y458353D01*
X478740Y458149D01*
Y461024D01*
D02*
G37*
G36*
X491831Y429436D02*
X490782Y429155D01*
X489813Y428596D01*
X489022Y427805D01*
X488463Y426836D01*
X488182Y425787D01*
X491831D01*
Y429436D01*
D02*
G37*
G36*
Y424606D02*
X488182D01*
X488463Y423557D01*
X489022Y422588D01*
X489813Y421798D01*
X490782Y421238D01*
X491831Y420957D01*
Y424606D01*
D02*
G37*
G36*
X491378Y415961D02*
X491370D01*
X490215Y415651D01*
X489179Y415053D01*
X488333Y414207D01*
X487735Y413171D01*
X487425Y412015D01*
Y412008D01*
X491378D01*
Y415961D01*
D02*
G37*
G36*
X473988Y411811D02*
X470079D01*
Y407902D01*
X470081D01*
X471225Y408208D01*
X472251Y408801D01*
X473089Y409639D01*
X473681Y410665D01*
X473988Y411809D01*
Y411811D01*
D02*
G37*
G36*
X468898D02*
X464988D01*
Y411809D01*
X465295Y410665D01*
X465887Y409639D01*
X466725Y408801D01*
X467751Y408208D01*
X468896Y407902D01*
X468898D01*
Y411811D01*
D02*
G37*
G36*
X491378Y410827D02*
X487425D01*
Y410819D01*
X487735Y409664D01*
X488333Y408628D01*
X489179Y407782D01*
X490215Y407184D01*
X491370Y406874D01*
X491378D01*
Y410827D01*
D02*
G37*
G36*
X428905Y254150D02*
X426929D01*
Y249606D01*
X431472D01*
Y251583D01*
X428905Y254150D01*
D02*
G37*
G36*
X425748D02*
X423772D01*
X421205Y251583D01*
Y249606D01*
X425748D01*
Y254150D01*
D02*
G37*
G36*
X431472Y248425D02*
X426929D01*
Y243882D01*
X428905D01*
X431472Y246449D01*
Y248425D01*
D02*
G37*
G36*
X425748D02*
X421205D01*
Y246449D01*
X423772Y243882D01*
X425748D01*
Y248425D01*
D02*
G37*
G36*
X451772Y473661D02*
X448021D01*
X448312Y472574D01*
X448884Y471583D01*
X449693Y470774D01*
X450684Y470202D01*
X451772Y469910D01*
Y473661D01*
D02*
G37*
G36*
X456704D02*
X452953D01*
Y469910D01*
X454040Y470202D01*
X455031Y470774D01*
X455840Y471583D01*
X456412Y472574D01*
X456704Y473661D01*
D02*
G37*
G36*
X459350Y400893D02*
X458301Y400612D01*
X457333Y400053D01*
X456542Y399262D01*
X455982Y398293D01*
X455701Y397244D01*
X459350D01*
Y400893D01*
D02*
G37*
G36*
X459311Y270803D02*
X459252D01*
Y266457D01*
X463598D01*
Y266516D01*
X463262Y267772D01*
X462612Y268898D01*
X461693Y269817D01*
X460567Y270467D01*
X459311Y270803D01*
D02*
G37*
G36*
X458071D02*
X458011D01*
X456756Y270467D01*
X455630Y269817D01*
X454711Y268898D01*
X454061Y267772D01*
X453724Y266516D01*
Y266457D01*
X458071D01*
Y270803D01*
D02*
G37*
G36*
X411472Y254150D02*
X406929D01*
Y249606D01*
X411472D01*
Y254150D01*
D02*
G37*
G36*
X405748D02*
X401205D01*
Y249606D01*
X405748D01*
Y254150D01*
D02*
G37*
G36*
X411472Y248425D02*
X406929D01*
Y243882D01*
X411472D01*
Y248425D01*
D02*
G37*
G36*
X405748D02*
X401205D01*
Y243882D01*
X405748D01*
Y248425D01*
D02*
G37*
G36*
X471910Y241039D02*
X471850D01*
Y236693D01*
X476197D01*
Y236752D01*
X475860Y238008D01*
X475210Y239134D01*
X474291Y240053D01*
X473165Y240703D01*
X471910Y241039D01*
D02*
G37*
G36*
X470669D02*
X470610D01*
X469354Y240703D01*
X468228Y240053D01*
X467309Y239134D01*
X466659Y238008D01*
X466323Y236752D01*
Y236693D01*
X470669D01*
Y241039D01*
D02*
G37*
G36*
X476197Y235512D02*
X471850D01*
Y231165D01*
X471910D01*
X473165Y231502D01*
X474291Y232152D01*
X475210Y233071D01*
X475860Y234197D01*
X476197Y235452D01*
Y235512D01*
D02*
G37*
G36*
X470669D02*
X466323D01*
Y235452D01*
X466659Y234197D01*
X467309Y233071D01*
X468228Y232152D01*
X469354Y231502D01*
X470610Y231165D01*
X470669D01*
Y235512D01*
D02*
G37*
%LPD*%
D19*
X518591Y483957D02*
X532480D01*
X514989Y487559D02*
X518591Y483957D01*
X470472Y486221D02*
X486221D01*
X463234Y493459D02*
X470472Y486221D01*
X486221D02*
X490158Y482283D01*
X507874D01*
X513779Y469331D02*
X518701Y464409D01*
X513779Y469331D02*
Y476378D01*
X507874Y482283D02*
X513779Y476378D01*
X532480Y443209D02*
X532559Y443130D01*
X518701Y464409D02*
X532480Y450630D01*
Y443209D02*
Y450630D01*
X492520Y487559D02*
X514989D01*
X485827Y494252D02*
X492520Y487559D01*
X459055Y494252D02*
X459848Y493459D01*
X463234D01*
D20*
X518714Y310039D02*
Y321466D01*
X505217Y291339D02*
Y303839D01*
Y279520D02*
Y291339D01*
X505905Y278543D02*
Y278831D01*
X505217Y279520D02*
X505905Y278831D01*
X497096Y360157D02*
X498159Y359095D01*
X510827D01*
X485236Y360157D02*
X497096D01*
X503327Y379095D02*
X510827D01*
X494390Y370158D02*
X503327Y379095D01*
X485236Y370158D02*
X494390D01*
X511366Y407330D02*
Y410815D01*
X511969Y411417D01*
X500689Y396654D02*
X511366Y407330D01*
X466535Y371063D02*
X467441Y370158D01*
X465551Y371063D02*
X466535D01*
X467441Y370158D02*
X485236D01*
X527262Y365158D02*
X540354D01*
X523325Y369094D02*
X527262Y365158D01*
X510827Y369094D02*
X523325D01*
X535433Y319882D02*
Y334646D01*
X538386Y306575D02*
Y316929D01*
X535433Y319882D02*
X538386Y316929D01*
X520864Y324309D02*
Y327950D01*
X520374Y323819D02*
X520864Y324309D01*
X526973Y334060D02*
X534847D01*
X535433Y334646D01*
X520864Y327950D02*
X526973Y334060D01*
X479318Y310039D02*
X499016D01*
X505217Y303839D01*
X479472Y310193D02*
Y323665D01*
X479626Y323819D01*
X479318Y310039D02*
X479472Y310193D01*
X479626Y323819D02*
Y338583D01*
X461614Y347441D02*
X462598Y348425D01*
X500984D01*
X510827Y338583D01*
X520374D01*
X521067D02*
X525988Y343504D01*
X520374Y338583D02*
X521067D01*
X543264Y337486D02*
Y337889D01*
X537649Y343504D02*
X543264Y337889D01*
X525988Y343504D02*
X537649D01*
X545276Y334646D02*
Y335474D01*
X543264Y337486D02*
X545276Y335474D01*
Y333817D02*
Y334646D01*
X548622Y306575D02*
Y330470D01*
X545276Y333817D02*
X548622Y330470D01*
X520965Y288681D02*
X528150Y295866D01*
Y306575D01*
X520965Y277559D02*
Y288681D01*
X545965Y277559D02*
Y291339D01*
X545817Y266014D02*
Y277411D01*
X545965Y277559D01*
X545669Y265866D02*
X545817Y266014D01*
X520965Y260807D02*
X545669Y236102D01*
X520965Y260807D02*
Y277559D01*
X538386Y404528D02*
Y405593D01*
X533169Y425197D02*
X545770Y437798D01*
Y442719D01*
X546260Y443209D01*
X532680Y416538D02*
Y424707D01*
X532480Y416339D02*
X532680Y416538D01*
Y424707D02*
X533169Y425197D01*
X532480Y411498D02*
X538386Y405593D01*
X532480Y411498D02*
Y416339D01*
X505905Y451772D02*
Y460774D01*
Y437008D02*
Y451772D01*
X492520Y474160D02*
X505905Y460774D01*
X458661Y451772D02*
X465158D01*
X464567Y427165D02*
X469173Y422559D01*
X464567Y435725D02*
X464668Y435826D01*
Y436309D01*
X464567Y427165D02*
Y435725D01*
Y436410D02*
X464668Y436309D01*
X492520Y474160D02*
Y474252D01*
X499439Y494026D02*
X539439D01*
X545770Y484446D02*
Y487694D01*
X539439Y494026D02*
X545770Y487694D01*
Y484446D02*
X546260Y483957D01*
X540276Y365079D02*
X540354Y365158D01*
X499213Y494252D02*
X499439Y494026D01*
D21*
X337283Y263465D02*
X356299Y282480D01*
Y294210D02*
X360236Y298147D01*
X356299Y282480D02*
Y294210D01*
X393701Y274606D02*
Y294210D01*
X377997Y258903D02*
X393701Y274606D01*
X389764Y298147D02*
X393701Y294210D01*
X377284Y250984D02*
X377997Y251698D01*
Y258903D01*
X337283Y250984D02*
Y263465D01*
X389764Y298147D02*
Y299213D01*
X360236Y298147D02*
Y299213D01*
D22*
X505905Y474252D02*
D03*
X499213Y494252D02*
D03*
X492520Y474252D02*
D03*
X485827Y494252D02*
D03*
X479134Y474252D02*
D03*
X472441Y494252D02*
D03*
X465748Y474252D02*
D03*
X459055Y494252D02*
D03*
X452362Y474252D02*
D03*
X445669Y494252D02*
D03*
D23*
X438976Y474252D02*
D03*
D24*
X385827Y358268D02*
D03*
X346457D02*
D03*
X385827Y448819D02*
D03*
X346457D02*
D03*
X330709Y299213D02*
D03*
X360236D02*
D03*
X389764D02*
D03*
X419291D02*
D03*
D25*
X479626Y323819D02*
D03*
X520374D02*
D03*
X479626Y338583D02*
D03*
X520374D02*
D03*
X505217Y291339D02*
D03*
X545965D02*
D03*
X532480Y483957D02*
D03*
Y443209D02*
D03*
X546260Y483957D02*
D03*
Y443209D02*
D03*
X505905Y437008D02*
D03*
X465158D02*
D03*
X459941Y396654D02*
D03*
X500689D02*
D03*
X492421Y425197D02*
D03*
X533169D02*
D03*
X465158Y451772D02*
D03*
X505905D02*
D03*
D26*
X479318Y310039D02*
D03*
D27*
X518714D02*
D03*
X439134Y451772D02*
D03*
X419134D02*
D03*
X419291Y491299D02*
D03*
Y471299D02*
D03*
X518701Y464409D02*
D03*
Y484410D02*
D03*
X511969Y411417D02*
D03*
X491968D02*
D03*
D28*
X545669Y265866D02*
D03*
D29*
X471260Y236102D02*
D03*
X458661Y265866D02*
D03*
X545669Y236102D02*
D03*
X540354Y365158D02*
D03*
Y404528D02*
D03*
D30*
X528150Y306575D02*
D03*
D31*
X538386D02*
D03*
X548622D02*
D03*
D32*
X520965Y277559D02*
D03*
D33*
X545965D02*
D03*
D34*
X337283Y250984D02*
D03*
D35*
X357283D02*
D03*
X377284D02*
D03*
D36*
X406339Y249016D02*
D03*
D37*
X426339D02*
D03*
D38*
X469488Y422244D02*
D03*
Y412402D02*
D03*
X535433Y334646D02*
D03*
X545276D02*
D03*
D39*
X485236Y370158D02*
D03*
X510827Y379095D02*
D03*
D40*
X485236Y360157D02*
D03*
X510827Y369094D02*
D03*
Y359095D02*
D03*
D41*
X505905Y278543D02*
D03*
X422244D02*
D03*
X479331Y461614D02*
D03*
X419291D02*
D03*
M02*
