Removed Pin From Net: NetName=VCC Pin=C2-1
Removed Pin From Net: NetName=GND Pin=C2-2
Removed Pin From Net: NetName=GND Pin=C4-1
Removed Pin From Net: NetName=VEE Pin=C4-2
Removed Member From Class: ClassName=Schematic_amp Member=C2
Removed Member From Class: ClassName=Schematic_amp Member=C4
