Removed Pin From Net: NetName=VCC Pin=C2-1
Removed Pin From Net: NetName=GND Pin=C2-2
Removed Pin From Net: NetName=GND Pin=C5-1
Removed Pin From Net: NetName=VEE Pin=C5-2
Removed Member From Class: ClassName=Schematic_amp Member=C6
Change Component Footprint: Designator=C1 Old Footprint=C1206_OLD New Footprint=CC5
Change Component Footprint: Designator=C4 Old Footprint=C1206_OLD New Footprint=CC5
Change Component Footprint: Designator=C5 Old Footprint=CE16x32_10 New Footprint=CE6,3x7-2,5
Change Component Footprint: Designator=R4 Old Footprint=R1206 New Footprint=RES10.35-6.8X2.8
Change Component Footprint: Designator=R5 Old Footprint=R1206 New Footprint=RES10.35-6.8X2.8
Change Component Footprint: Designator=R7 Old Footprint=R1206 New Footprint=RES10.35-6.8X2.8
Change Component Footprint: Designator=R8 Old Footprint=R1206 New Footprint=RES10.35-6.8X2.8
Change Component Footprint: Designator=R9 Old Footprint=R1206 New Footprint=RES10.35-6.8X2.8
Change Component Footprint: Designator=R10 Old Footprint=R1206 New Footprint=RES10.35-6.8X2.8
Change Component Comment : Designator=C5 Old Comment=2200u New Comment=*
Change Component Designator: OldDesignator=C3 NewDesignator=C2
Change Component Designator: OldDesignator=C4 NewDesignator=C3
Change Component Designator: OldDesignator=C6 NewDesignator=C4
Change component parameters: Designator = "C5" ("C5"); Footprint = "CE16x32_10"; UniqueID = "\NMXBEWCQ" ("\NMXBEWCQ")
Change component parameters (AddParameter): Name = "ComponentLink1Description"; Value = "datasheet"; VariantName = "[No Variations]"
Change component parameters (AddParameter): Name = "ComponentLink1URL"; Value = ""; VariantName = "[No Variations]"
Change component parameters (AddParameter): Name = "ComponentLink2Description"; Value = "supplier"; VariantName = "[No Variations]"
Change component parameters (AddParameter): Name = "ComponentLink2URL"; Value = ""; VariantName = "[No Variations]"
Change component parameters (AddParameter): Name = "PackageReference"; Value = ""; VariantName = "[No Variations]"
Change component parameters (AddParameter): Name = "Price"; Value = ""; VariantName = "[No Variations]"
Change component parameters (AddParameter): Name = "Producer"; Value = ""; VariantName = "[No Variations]"
Change component parameters (AddParameter): Name = "Producer Nr"; Value = ""; VariantName = "[No Variations]"
Change component parameters (AddParameter): Name = "Published"; Value = ""; VariantName = "[No Variations]"
Change component parameters (AddParameter): Name = "Supplier"; Value = ""; VariantName = "[No Variations]"
Change component parameters (AddParameter): Name = "Supplier Nr"; Value = ""; VariantName = "[No Variations]"
Change component parameters (AddParameter): Name = "Value"; Value = ""; VariantName = "[No Variations]"
Added Component: Designator=D2(DIO6.35-3.1x1.6)
Add component (AddParameter): Name = "ComponentLink1Description"; Value = ""; VariantName = "[No Variations]"
Add component (AddParameter): Name = "ComponentLink1URL"; Value = ""; VariantName = "[No Variations]"
Add component (AddParameter): Name = "ComponentLink2Description"; Value = ""; VariantName = "[No Variations]"
Add component (AddParameter): Name = "ComponentLink2URL"; Value = ""; VariantName = "[No Variations]"
Add component (AddParameter): Name = "PackageReference"; Value = ""; VariantName = "[No Variations]"
Add component (AddParameter): Name = "Product Nr"; Value = ""; VariantName = "[No Variations]"
Add component (AddParameter): Name = "Published"; Value = "26-Mar-2006"; VariantName = "[No Variations]"
Add component (AddParameter): Name = "Supplier"; Value = ""; VariantName = "[No Variations]"
Added Component: Designator=D3(DO41)
Added Component: Designator=Q1(On_Semiconductor_135AR_MFG)
Added Component: Designator=R1(RES10.35-6.8X2.8)
Add component (AddParameter): Name = "ComponentLink1Description"; Value = "datasheet"; VariantName = "[No Variations]"
Add component (AddParameter): Name = "ComponentLink1URL"; Value = ""; VariantName = "[No Variations]"
Add component (AddParameter): Name = "ComponentLink2Description"; Value = "supplier"; VariantName = "[No Variations]"
Add component (AddParameter): Name = "ComponentLink2URL"; Value = ""; VariantName = "[No Variations]"
Add component (AddParameter): Name = "Price"; Value = ""; VariantName = "[No Variations]"
Add component (AddParameter): Name = "Producer"; Value = ""; VariantName = "[No Variations]"
Add component (AddParameter): Name = "Producer Nr"; Value = ""; VariantName = "[No Variations]"
Add component (AddParameter): Name = "Published"; Value = "19-Feb-2006"; VariantName = "[No Variations]"
Add component (AddParameter): Name = "Supplier"; Value = ""; VariantName = "[No Variations]"
Add component (AddParameter): Name = "Supplier Nr"; Value = ""; VariantName = "[No Variations]"
Add component (AddParameter): Name = "Value"; Value = "150"; VariantName = "[No Variations]"
Added Component: Designator=R2(RES10.35-6.8X2.8)
Add component (AddParameter): Name = "ComponentLink1Description"; Value = "datasheet"; VariantName = "[No Variations]"
Add component (AddParameter): Name = "ComponentLink1URL"; Value = ""; VariantName = "[No Variations]"
Add component (AddParameter): Name = "ComponentLink2Description"; Value = "supplier"; VariantName = "[No Variations]"
Add component (AddParameter): Name = "ComponentLink2URL"; Value = ""; VariantName = "[No Variations]"
Add component (AddParameter): Name = "Price"; Value = ""; VariantName = "[No Variations]"
Add component (AddParameter): Name = "Producer"; Value = ""; VariantName = "[No Variations]"
Add component (AddParameter): Name = "Producer Nr"; Value = ""; VariantName = "[No Variations]"
Add component (AddParameter): Name = "Published"; Value = "19-Feb-2006"; VariantName = "[No Variations]"
Add component (AddParameter): Name = "Supplier"; Value = ""; VariantName = "[No Variations]"
Add component (AddParameter): Name = "Supplier Nr"; Value = ""; VariantName = "[No Variations]"
Add component (AddParameter): Name = "Value"; Value = "3k3"; VariantName = "[No Variations]"
Added Component: Designator=R3(RES10.35-6.8X2.8)
Add component (AddParameter): Name = "ComponentLink1Description"; Value = "datasheet"; VariantName = "[No Variations]"
Add component (AddParameter): Name = "ComponentLink1URL"; Value = ""; VariantName = "[No Variations]"
Add component (AddParameter): Name = "ComponentLink2Description"; Value = "supplier"; VariantName = "[No Variations]"
Add component (AddParameter): Name = "ComponentLink2URL"; Value = ""; VariantName = "[No Variations]"
Add component (AddParameter): Name = "Price"; Value = ""; VariantName = "[No Variations]"
Add component (AddParameter): Name = "Producer"; Value = ""; VariantName = "[No Variations]"
Add component (AddParameter): Name = "Producer Nr"; Value = ""; VariantName = "[No Variations]"
Add component (AddParameter): Name = "Published"; Value = "19-Feb-2006"; VariantName = "[No Variations]"
Add component (AddParameter): Name = "Supplier"; Value = ""; VariantName = "[No Variations]"
Add component (AddParameter): Name = "Supplier Nr"; Value = ""; VariantName = "[No Variations]"
Add component (AddParameter): Name = "Value"; Value = "8M2"; VariantName = "[No Variations]"
Added Pin To Net: NetName=GND Pin=C5-2
Added Pin To Net: NetName=VCC Pin=D3-2
Added Pin To Net: NetName=GND Pin=Q1-3
Added Pin To Net: NetName=VCC Pin=R1-1
Added Pin To Net: NetName=GND Pin=R2-1
Added Pin To Net: NetName=VCC Pin=R2-2
Added Pin To Net: NetName=VCC Pin=R3-2
Added Pin To Net: NetName=NetC5_1 Pin=C5-1
Added Pin To Net: NetName=NetC5_1 Pin=D3-1
Added Pin To Net: NetName=NetC5_1 Pin=Q1-2
Added Pin To Net: NetName=NetC5_1 Pin=R3-1
Added Net: Name=NetC5_1
Added Pin To Net: NetName=NetD2_1 Pin=D2-1
Added Pin To Net: NetName=NetD2_1 Pin=K1-5
Added Pin To Net: NetName=NetD2_1 Pin=Q1-1
Added Net: Name=NetD2_1
Added Pin To Net: NetName=NetD2_2 Pin=D2-2
Added Pin To Net: NetName=NetD2_2 Pin=K1-4
Added Pin To Net: NetName=NetD2_2 Pin=R1-2
Added Net: Name=NetD2_2
Added Member To Class: ClassName=Schematic_amp Member=Component C7 1u
Added Member To Class: ClassName=Schematic_amp Member=Component D2 1N4148
Added Member To Class: ClassName=Schematic_amp Member=Component D3 1N400x
Added Member To Class: ClassName=Schematic_amp Member=Component Q1 BC517-D74Z
Added Member To Class: ClassName=Schematic_amp Member=Component R1 150
Added Member To Class: ClassName=Schematic_amp Member=Component R2 3k3
Added Member To Class: ClassName=Schematic_amp Member=Component R3 8M2
