Change Component Footprint: Designator=R6 Old Footprint=PWR05W_H New Footprint=RES14.2-10.5X3.3
Added Member To Class: ClassName=Schematic_amp Member=Component C2 2200u
Added Member To Class: ClassName=Schematic_amp Member=Component C3 100n
Added Member To Class: ClassName=Schematic_amp Member=Component C4 2200u
