Removed Pin From Net: NetName=GND Pin=J1-2
Removed Member From Class: ClassName=Schematic_amp Member=J1
Added Pin To Net: NetName=GND Pin=C1-2
Added Pin To Net: NetName=GND Pin=C2-2
Added Pin To Net: NetName=GND Pin=C3-1
Added Pin To Net: NetName=GND Pin=C4-1
Added Pin To Net: NetName=GND Pin=CN_pwr-2
